[gd_scene load_steps=5 format=3 uid="uid://cti20jwwxta2b"]

[ext_resource type="Material" uid="uid://c584iw4um6p3n" path="res://materials/protoDark.tres" id="1_2m2ua"]

[sub_resource type="PhysicsMaterial" id="PhysicsMaterial_taf00"]

[sub_resource type="ConvexPolygonShape3D" id="ConvexPolygonShape3D_7tnfn"]
points = PackedVector3Array(1.01587, 0.015873, 1.01587, -1.01587, -0.015873, -1.01587, -1.01587, 0.015873, -1.01587, 1.01587, -0.015873, -1.01587, -1.01587, -0.015873, 1.01587, -1.01587, 0.015873, 1.01587, 1.01587, 0.015873, -1.01587, 1.01587, -0.015873, 1.01587)

[sub_resource type="PlaneMesh" id="PlaneMesh_kjp6i"]

[node name="Testing" type="Node3D"]

[node name="Floor" type="StaticBody3D" parent="."]
physics_material_override = SubResource("PhysicsMaterial_taf00")

[node name="CollisionShape3D" type="CollisionShape3D" parent="Floor"]
shape = SubResource("ConvexPolygonShape3D_7tnfn")

[node name="FloorMesh" type="MeshInstance3D" parent="Floor"]
material_override = ExtResource("1_2m2ua")
mesh = SubResource("PlaneMesh_kjp6i")
skeleton = NodePath("../..")
